…
    #> Fixing typos...
    #> Searching data for members of the 110th congress, n = 154 (123 distinct strings).

``` r
cr
```

    #> # A tibble: 193 × 14
    #>    data_id icpsr bioname                    last_name first_name congress chamber state_abbrev district_code date       speaker                          header                            url   url_txt
    #>      <int> <dbl> <chr>                      <chr>     <chr>         <dbl> <chr>   <chr>                <dbl> <date>     <chr>                            <chr>                             <chr> <chr>  
    #>  1       1 20124 GRAVES, Samuel             GRAVES    Samuel          110 House   MO                       6 2007-03-01 hon sam graves;mr graves         RECOGNIZING JARRETT MUCK FOR ACH… http… https:…
    #>  2       2 29906 UDALL, Mark                UDALL     Mark            110 House   CO                       2 2007-03-01 hon mark udall;mr udall          INTRODUCING A CONCURRENT RESOLUT… http… https:…
    #>  3       3 20136 LANGEVIN, James            LANGEVIN  James           110 House   RI                       2 2007-03-01 hon james r langevin;mr langevin BIOSURVEILLANCE ENHANCEMENT ACT … http… https:…
    #>  4       4 20501 COSTA, Jim                 COSTA     Jim             110 House   CA                      20 2007-03-01 hon jim costa;mr costa           A TRIBUTE TO THE LIFE OF MRS. VE… http… https:…
    #>  5       5 20124 GRAVES, Samuel             GRAVES    Samuel          110 House   MO                       6 2007-03-01 hon sam graves;mr graves         RECOGNIZING JARRETT MUCK FOR ACH… http… https:…
    #>  6       6 29339 BISHOP, Sanford Dixon, Jr. BISHOP    Sanford         110 House   GA                       2 2007-03-01 hon sanford d bishop;mr bishop   IN HONOR OF SYNOVUS BEING NAMED … http… https:…
    #>  7       7 15072 TOWNS, Edolphus            TOWNS     Edolphus        110 House   NY                      10 2007-03-01 hon edolphus towns;mr towns      NEW PUNJAB CHIEF MINISTER URGED … http… https:…
    #>  8       8 29576 DAVIS, Thomas M., III      DAVIS     Thomas          110 House   VA                      11 2007-03-01 hon tom davis;mr tom davis       HONORING THE 30TH ANNIVERSARY OF… http… https:…
    #>  9       9 20124 GRAVES, Samuel             GRAVES    Samuel          110 House   MO                       6 2007-03-01 hon sam graves;mr graves         RECOGNIZING BRIAN PATRICK WESSLI… http… https:…
    #> 10      10 29906 UDALL, Mark                UDALL     Mark            110 House   CO                       2 2007-03-01 hon mark udall;mr udall          INTRODUCTION OF ROYALTY-IN-KIND … http… https:…
    #> # … with 183 more rows
…
