Find legislator names in messy text • legislators
…
data("members")

members

#> # A tibble: 49,938 × 9
#>    congress chamber   bioname                      pattern                                                                                         icpsr state_abbrev district_code first_name last_name
#>       <dbl> <chr>     <chr>                        <chr>                                                                                           <dbl> <chr>                <dbl> <chr>      <chr>    
#>  1      117 President TRUMP, Donald John           "donald trump|donald john trump|\\bd trump|donald j trump|don trump|don john trump|don j trump… 99912 USA                      0 Donald     TRUMP    
#>  2      117 President BIDEN, Joseph Robinette, Jr. "joseph biden|joseph robinette biden|\\bj biden|joseph r biden|joe biden|joe robinette biden|j… 99913 USA                      0 Joseph     BIDEN    
#>  3      117 House     ROGERS, Mike Dennis          "mike rogers|mike dennis rogers|\\bm rogers|mike d rogers|michael rogers|michael dennis rogers… 20301 AL                       3 Mike       ROGERS   
#>  4      117 House     SEWELL, Terri                "terri sewell|\\bt sewell|terri a sewell|\\bna sewell|(^|senator |representative )sewell\\b|se… 21102 AL                       7 Terri      SEWELL   
#>  5      117 House     BROOKS, Mo                   "mo brooks|\\bm brooks|\\bna brooks|(^|senator |representative )brooks\\b|brooks, mo|brooks mo… 21193 AL                       5 Mo         BROOKS   
#>  6      117 House     PALMER, Gary James           "gary palmer|gary james palmer|\\bg palmer|gary j palmer|\\bna palmer|(^|senator |representati… 21500 AL                       6 Gary       PALMER   
#>  7      117 House     CARL, Jerry L.               "jerry carl|jerry l carl|\\bj carl|\\bna carl|(^|senator |representative )carl\\b.{1,4}al|carl… 22108 AL                       1 Jerry      CARL     
#>  8      117 House     MOORE, Barry                 "barry moore|\\bb moore.{1,4}al|(^|senator |representative )moore\\b.{1,4}al|moore, barry|moor… 22140 AL                       2 Barry      MOORE    
#>  9      117 House     ADERHOLT, Robert             "robert aderholt|\\br aderholt|robert b aderholt|bob aderholt|bob b aderholt|\\bb aderholt|(^|… 29701 AL                       4 Robert     ADERHOLT 
#> 10      117 House     YOUNG, Donald Edwin          "donald young|donald edwin young|\\bd young|donald e young|don young|don edwin young|don e you… 14066 AK                       1 Donald     YOUNG    
#> # … with 49,928 more rows

Before searching the text, several functions clean it and “fix”
common human typos and OCR errors that frustrate matching. Some of these
corrections are currently supplied by MemberNameTypos.R. In
future versions, typos will be supplied as a dataframe
instead, and all types of corrections (cleaning, typos, OCR errors) will
be optional. Additionally, users can customize the typos
dataframe and provide it as an argument to
extractMemberName().

data("typos")

typos

#> # A tibble: 480 × 2
#>    typos                                                                                                  correct             
#>    <chr>                                                                                                  <chr>               
#>  1 ( 0 | 0, )                                                                                             " o "               
#>  2 aaron( | [a-z]* )s chock($| |,|;)|s chock, aaron                                                       "aaron schock"      
#>  3 adam( | [a-z]* )(schif|sdxiff)($| |,|;)|(schif|sdxiff), adam                                           "adam schiff"       
#>  4 adrian( | [a-z]* )espaillat|espaillat, adrian|adriano( | [a-z]* )espaillet($| |,|;)|espaillet, adriano "adriano espaillat" 
#>  5 al( | [a-z]* )fianken($| |,|;)|fianken, al                                                             "al franken"        
#>  6 (alccc|ateee)( | [a-z]* )hastings|hastings, (alccc|ateee)                                              "alcee hastings"    
#>  7 allyson( | [a-z]* )schwaltz($| |,|;)|schwaltz, allyson                                                 "allyson schwartz"  
#>  8 allyson d schwartz|schwartz, allyson d                                                                 "allyson y schwartz"
#>  9 ami( | [a-z]* )(beta|gera)($| |,|;)|(beta|gera), ami                                                   "ami bera"          
#> 10 amy( | [a-z]* )klobachur|klobachar($| |,|;)|klobachur|klobachar, amy                                   "amy klobuchar"     
#> # … with 470 more rows
…
in the future, extractMemberName() may default to
returning a list of dataframes the same length as the supplied data

For example, we can use extractMemberName() to detect
the names of members of Congress in the text of the Congressional
Record. Let’s start with text from the Congressional Record from
3/1/2007, scraped and parsed using methods described here.

data("cr2007_03_01")

cr2007_03_01

#> # A tibble: 154 × 5
#>    date       speaker                             header                                                                                                                                   url   url_txt
#>    <date>     <chr>                               <chr>                                                                                                                                    <chr> <chr>  
#>  1 2007-03-01 HON. SAM GRAVES;Mr. GRAVES          RECOGNIZING JARRETT MUCK FOR ACHIEVING THE RANK OF EAGLE SCOUT; Congressional Record Vol. 153, No. 35                                    http… https:…
#>  2 2007-03-01 HON. MARK UDALL;Mr. UDALL           INTRODUCING A CONCURRENT RESOLUTION HONORING THE 50TH ANNIVERSARY OF THE INTERNATIONAL GEOPHYSICAL YEAR (IGY); Congressional Record Vol… http… https:…
#>  3 2007-03-01 HON. JAMES R. LANGEVIN;Mr. LANGEVIN BIOSURVEILLANCE ENHANCEMENT ACT OF 2007; Congressional Record Vol. 153, No. 35                                                           http… https:…
#>  4 2007-03-01 HON. JIM COSTA;Mr. COSTA            A TRIBUTE TO THE LIFE OF MRS. VERNA DUTY; Congressional Record Vol. 153, No. 35                                                          http… https:…
#>  5 2007-03-01 HON. SAM GRAVES;Mr. GRAVES          RECOGNIZING JARRETT MUCK FOR ACHIEVING THE RANK OF EAGLE SCOUT                                                                           http… https:…
#>  6 2007-03-01 HON. SANFORD D. BISHOP;Mr. BISHOP   IN HONOR OF SYNOVUS BEING NAMED ONE OF THE BEST COMPANIES IN AMERICA; Congressional Record Vol. 153, No. 35                              http… https:…
#>  7 2007-03-01 HON. EDOLPHUS TOWNS;Mr. TOWNS       NEW PUNJAB CHIEF MINISTER URGED TO WORK FOR SIKH SOVEREIGNTY; Congressional Record Vol. 153, No. 35                                      http… https:…
#>  8 2007-03-01 HON. TOM DAVIS;Mr. TOM DAVIS        HONORING THE 30TH ANNIVERSARY OF THE BAILEY'S CROSSROADS ROTARY CLUB; Congressional Record Vol. 153, No. 35                              http… https:…
#>  9 2007-03-01 HON. SAM GRAVES;Mr. GRAVES          RECOGNIZING BRIAN PATRICK WESSLING FOR ACHIEVING THE RANK OF EAGLE SCOUT; Congressional Record Vol. 153, No. 35                          http… https:…
#> 10 2007-03-01 HON. MARK UDALL;Mr. UDALL           INTRODUCTION OF ROYALTY-IN-KIND FOR ENERGY ASSISTANCE LEGISLATION; Congressional Record Vol. 153, No. 35                                 http… https:…
#> # … with 144 more rows
…
#> Typos fixed in 5 seconds

#> Searching  data for members of the 110th, n = 154 (123 distinct strings).

#> Names matched in 7 seconds

#> Joining, by = c("congress", "pattern", "first_name", "last_name")

cr

#> # A tibble: 193 × 17
#>    data_row_id match_id icpsr bioname                    string                         pattern chamber congress date       speaker header url   url_txt first_name last_name state_abbrev district_code
#>    <chr>       <chr>    <dbl> <chr>                      <chr>                          <chr>   <chr>      <dbl> <date>     <chr>   <chr>  <chr> <chr>   <chr>      <chr>     <chr>                <dbl>
#>  1 000001      000001   20124 GRAVES, Samuel             hon sam graves;mr graves       "samue… House        110 2007-03-01 HON. S… RECOG… http… https:… Samuel     GRAVES    MO                       6
#>  2 000002      000002   29906 UDALL, Mark                hon mark udall;mr udall        "mark … House        110 2007-03-01 HON. M… INTRO… http… https:… Mark       UDALL     CO                       2
#>  3 000003      000003   20136 LANGEVIN, James            hon james r langevin;mr lange… "james… House        110 2007-03-01 HON. J… BIOSU… http… https:… James      LANGEVIN  RI                       2
#>  4 000004      000004   20501 COSTA, Jim                 hon jim costa;mr costa         "jim c… House        110 2007-03-01 HON. J… A TRI… http… https:… Jim        COSTA     CA                      20
#>  5 000005      000005   20124 GRAVES, Samuel             hon sam graves;mr graves       "samue… House        110 2007-03-01 HON. S… RECOG… http… https:… Samuel     GRAVES    MO                       6
#>  6 000006      000006   29339 BISHOP, Sanford Dixon, Jr. hon sanford d bishop;mr bishop "sanfo… House        110 2007-03-01 HON. S… IN HO… http… https:… Sanford    BISHOP    GA                       2
#>  7 000007      000007   15072 TOWNS, Edolphus            hon edolphus towns;mr towns    "edolp… House        110 2007-03-01 HON. E… NEW P… http… https:… Edolphus   TOWNS     NY                      10
#>  8 000008      000008   29576 DAVIS, Thomas M., III      hon tom davis;mr tom davis     "thoma… House        110 2007-03-01 HON. T… HONOR… http… https:… Thomas     DAVIS     VA                      11
#>  9 000009      000009   20124 GRAVES, Samuel             hon sam graves;mr graves       "samue… House        110 2007-03-01 HON. S… RECOG… http… https:… Samuel     GRAVES    MO                       6
#> 10 000010      000010   29906 UDALL, Mark                hon mark udall;mr udall        "mark … House        110 2007-03-01 HON. M… INTRO… http… https:… Mark       UDALL     CO                       2
#> # … with 183 more rows
…
